[INFO] 2019-09-05 03:20:34,753 c.a.Solution - Element: <a class="navbar-brand" href="index.html">SB Admin v2.0</a>; similarity coefficient: 0
[INFO] 2019-09-05 03:20:34,755 c.a.Solution - Element: <a class="dropdown-toggle" data-toggle="dropdown" href="#"> <i class="fa fa-envelope fa-fw"></i> <i class="fa fa-caret-down"></i> </a>; similarity coefficient: 0
[INFO] 2019-09-05 03:20:34,755 c.a.Solution - Element: <a href="#">
 <div>
  <strong>John Smith</strong>
  <span class="pull-right text-muted"> <em>Yesterday</em> </span>
 </div>
 <div>
  Lorem ipsum dolor sit amet, consectetur adipiscing elit. Pellentesque eleifend...
 </div> </a>; similarity coefficient: 0
[INFO] 2019-09-05 03:20:34,758 c.a.Solution - Element: <a href="#">
 <div>
  <strong>John Smith</strong>
  <span class="pull-right text-muted"> <em>Yesterday</em> </span>
 </div>
 <div>
  Lorem ipsum dolor sit amet, consectetur adipiscing elit. Pellentesque eleifend...
 </div> </a>; similarity coefficient: 0
[INFO] 2019-09-05 03:20:34,758 c.a.Solution - Element: <a href="#">
 <div>
  <strong>John Smith</strong>
  <span class="pull-right text-muted"> <em>Yesterday</em> </span>
 </div>
 <div>
  Lorem ipsum dolor sit amet, consectetur adipiscing elit. Pellentesque eleifend...
 </div> </a>; similarity coefficient: 0
[INFO] 2019-09-05 03:20:34,759 c.a.Solution - Element: <a class="text-center" href="#"> <strong>Read All Messages</strong> <i class="fa fa-angle-right"></i> </a>; similarity coefficient: 0
[INFO] 2019-09-05 03:20:34,759 c.a.Solution - Element: <a class="dropdown-toggle" data-toggle="dropdown" href="#"> <i class="fa fa-tasks fa-fw"></i> <i class="fa fa-caret-down"></i> </a>; similarity coefficient: 0
[INFO] 2019-09-05 03:20:34,759 c.a.Solution - Element: <a href="#">
 <div>
  <p> <strong>Task 1</strong> <span class="pull-right text-muted">40% Complete</span> </p>
  <div class="progress progress-striped active">
   <div class="progress-bar progress-bar-success" role="progressbar" aria-valuenow="40" aria-valuemin="0" aria-valuemax="100" style="width: 40%">
    <span class="sr-only">40% Complete (success)</span>
   </div>
  </div>
 </div> </a>; similarity coefficient: 0
[INFO] 2019-09-05 03:20:34,768 c.a.Solution - Element: <a href="#">
 <div>
  <p> <strong>Task 2</strong> <span class="pull-right text-muted">20% Complete</span> </p>
  <div class="progress progress-striped active">
   <div class="progress-bar progress-bar-info" role="progressbar" aria-valuenow="20" aria-valuemin="0" aria-valuemax="100" style="width: 20%">
    <span class="sr-only">20% Complete</span>
   </div>
  </div>
 </div> </a>; similarity coefficient: 0
[INFO] 2019-09-05 03:20:34,769 c.a.Solution - Element: <a href="#">
 <div>
  <p> <strong>Task 3</strong> <span class="pull-right text-muted">60% Complete</span> </p>
  <div class="progress progress-striped active">
   <div class="progress-bar progress-bar-warning" role="progressbar" aria-valuenow="60" aria-valuemin="0" aria-valuemax="100" style="width: 60%">
    <span class="sr-only">60% Complete (warning)</span>
   </div>
  </div>
 </div> </a>; similarity coefficient: 0
[INFO] 2019-09-05 03:20:34,769 c.a.Solution - Element: <a href="#">
 <div>
  <p> <strong>Task 4</strong> <span class="pull-right text-muted">80% Complete</span> </p>
  <div class="progress progress-striped active">
   <div class="progress-bar progress-bar-danger" role="progressbar" aria-valuenow="80" aria-valuemin="0" aria-valuemax="100" style="width: 80%">
    <span class="sr-only">80% Complete (danger)</span>
   </div>
  </div>
 </div> </a>; similarity coefficient: 0
[INFO] 2019-09-05 03:20:34,769 c.a.Solution - Element: <a class="text-center" href="#"> <strong>See All Tasks</strong> <i class="fa fa-angle-right"></i> </a>; similarity coefficient: 0
[INFO] 2019-09-05 03:20:34,769 c.a.Solution - Element: <a class="dropdown-toggle" data-toggle="dropdown" href="#"> <i class="fa fa-bell fa-fw"></i> <i class="fa fa-caret-down"></i> </a>; similarity coefficient: 0
[INFO] 2019-09-05 03:20:34,771 c.a.Solution - Element: <a href="#">
 <div>
  <i class="fa fa-comment fa-fw"></i> New Comment
  <span class="pull-right text-muted small">4 minutes ago</span>
 </div> </a>; similarity coefficient: 0
[INFO] 2019-09-05 03:20:34,771 c.a.Solution - Element: <a href="#">
 <div>
  <i class="fa fa-twitter fa-fw"></i> 3 New Followers
  <span class="pull-right text-muted small">12 minutes ago</span>
 </div> </a>; similarity coefficient: 0
[INFO] 2019-09-05 03:20:34,772 c.a.Solution - Element: <a href="#">
 <div>
  <i class="fa fa-envelope fa-fw"></i> Message Sent
  <span class="pull-right text-muted small">4 minutes ago</span>
 </div> </a>; similarity coefficient: 0
[INFO] 2019-09-05 03:20:34,772 c.a.Solution - Element: <a href="#">
 <div>
  <i class="fa fa-tasks fa-fw"></i> New Task
  <span class="pull-right text-muted small">4 minutes ago</span>
 </div> </a>; similarity coefficient: 0
[INFO] 2019-09-05 03:20:34,772 c.a.Solution - Element: <a href="#">
 <div>
  <i class="fa fa-upload fa-fw"></i> Server Rebooted
  <span class="pull-right text-muted small">4 minutes ago</span>
 </div> </a>; similarity coefficient: 0
[INFO] 2019-09-05 03:20:34,772 c.a.Solution - Element: <a class="text-center" href="#"> <strong>See All Alerts</strong> <i class="fa fa-angle-right"></i> </a>; similarity coefficient: 0
[INFO] 2019-09-05 03:20:34,773 c.a.Solution - Element: <a class="dropdown-toggle" data-toggle="dropdown" href="#"> <i class="fa fa-user fa-fw"></i> <i class="fa fa-caret-down"></i> </a>; similarity coefficient: 0
[INFO] 2019-09-05 03:20:34,774 c.a.Solution - Element: <a href="#"><i class="fa fa-user fa-fw"></i> User Profile</a>; similarity coefficient: 0
[INFO] 2019-09-05 03:20:34,774 c.a.Solution - Element: <a href="#"><i class="fa fa-gear fa-fw"></i> Settings</a>; similarity coefficient: 0
[INFO] 2019-09-05 03:20:34,774 c.a.Solution - Element: <a href="login.html"><i class="fa fa-sign-out fa-fw"></i> Logout</a>; similarity coefficient: 0
[INFO] 2019-09-05 03:20:34,774 c.a.Solution - Element: <a href="index.html"><i class="fa fa-dashboard fa-fw"></i> Dashboard</a>; similarity coefficient: 0
[INFO] 2019-09-05 03:20:34,775 c.a.Solution - Element: <a href="#">
 <div class="panel-footer">
  <span class="pull-left">View Details</span>
  <span class="pull-right"><i class="fa fa-arrow-circle-right"></i></span>
  <div class="clearfix"></div>
 </div> </a>; similarity coefficient: 0
[INFO] 2019-09-05 03:20:34,775 c.a.Solution - Element: <a href="#">
 <div class="panel-footer">
  <span class="pull-left">View Details</span>
  <span class="pull-right"><i class="fa fa-arrow-circle-right"></i></span>
  <div class="clearfix"></div>
 </div> </a>; similarity coefficient: 0
[INFO] 2019-09-05 03:20:34,775 c.a.Solution - Element: <a href="#">
 <div class="panel-footer">
  <span class="pull-left">View Details</span>
  <span class="pull-right"><i class="fa fa-arrow-circle-right"></i></span>
  <div class="clearfix"></div>
 </div> </a>; similarity coefficient: 0
[INFO] 2019-09-05 03:20:34,775 c.a.Solution - Element: <a href="#">
 <div class="panel-footer">
  <span class="pull-left">View Details</span>
  <span class="pull-right"><i class="fa fa-arrow-circle-right"></i></span>
  <div class="clearfix"></div>
 </div> </a>; similarity coefficient: 0
[INFO] 2019-09-05 03:20:34,775 c.a.Solution - Element: <a href="#">Action</a>; similarity coefficient: 0
[INFO] 2019-09-05 03:20:34,776 c.a.Solution - Element: <a href="#">Another action</a>; similarity coefficient: 0
[INFO] 2019-09-05 03:20:34,776 c.a.Solution - Element: <a href="#">Something else here</a>; similarity coefficient: 0
[INFO] 2019-09-05 03:20:34,776 c.a.Solution - Element: <a href="#">Separated link</a>; similarity coefficient: 0
[INFO] 2019-09-05 03:20:34,776 c.a.Solution - Element: <a class="btn test-link-ok" href="#ok" title="Make-Button" rel="next" onclick="javascript:window.okComplete(); return false;"> Make everything OK </a>; similarity coefficient: 3
[INFO] 2019-09-05 03:20:34,776 c.a.Solution - Element: <a href="#" class="list-group-item"> <i class="fa fa-comment fa-fw"></i> New Comment <span class="pull-right text-muted small"><em>4 minutes ago</em> </span> </a>; similarity coefficient: 0
[INFO] 2019-09-05 03:20:34,776 c.a.Solution - Element: <a href="#" class="list-group-item"> <i class="fa fa-twitter fa-fw"></i> 3 New Followers <span class="pull-right text-muted small"><em>12 minutes ago</em> </span> </a>; similarity coefficient: 0
[INFO] 2019-09-05 03:20:34,776 c.a.Solution - Element: <a href="#" class="list-group-item"> <i class="fa fa-envelope fa-fw"></i> Message Sent <span class="pull-right text-muted small"><em>27 minutes ago</em> </span> </a>; similarity coefficient: 0
[INFO] 2019-09-05 03:20:34,777 c.a.Solution - Element: <a href="#" class="list-group-item"> <i class="fa fa-tasks fa-fw"></i> New Task <span class="pull-right text-muted small"><em>43 minutes ago</em> </span> </a>; similarity coefficient: 0
[INFO] 2019-09-05 03:20:34,777 c.a.Solution - Element: <a href="#" class="list-group-item"> <i class="fa fa-upload fa-fw"></i> Server Rebooted <span class="pull-right text-muted small"><em>11:32 AM</em> </span> </a>; similarity coefficient: 0
[INFO] 2019-09-05 03:20:34,777 c.a.Solution - Element: <a href="#" class="list-group-item"> <i class="fa fa-bolt fa-fw"></i> Server Crashed! <span class="pull-right text-muted small"><em>11:13 AM</em> </span> </a>; similarity coefficient: 0
[INFO] 2019-09-05 03:20:34,777 c.a.Solution - Element: <a href="#" class="list-group-item"> <i class="fa fa-warning fa-fw"></i> Server Not Responding <span class="pull-right text-muted small"><em>10:57 AM</em> </span> </a>; similarity coefficient: 0
[INFO] 2019-09-05 03:20:34,777 c.a.Solution - Element: <a href="#" class="list-group-item"> <i class="fa fa-shopping-cart fa-fw"></i> New Order Placed <span class="pull-right text-muted small"><em>9:49 AM</em> </span> </a>; similarity coefficient: 0
[INFO] 2019-09-05 03:20:34,777 c.a.Solution - Element: <a href="#" class="list-group-item"> <i class="fa fa-money fa-fw"></i> Payment Received <span class="pull-right text-muted small"><em>Yesterday</em> </span> </a>; similarity coefficient: 0
[INFO] 2019-09-05 03:20:34,778 c.a.Solution - Element: <a href="#" class="btn btn-default btn-block">View All Alerts</a>; similarity coefficient: 0
[INFO] 2019-09-05 03:20:34,778 c.a.Solution - Element: <a href="#incorrect-link" class="btn btn-info" style="display:none" title="Make-Button" onclick="javascript:window.close(); return false;"> Make everything OK </a>; similarity coefficient: 1
[INFO] 2019-09-05 03:20:34,785 c.a.Solution - Similar element path is: html[1]-> body[2]-> div[1]-> div[5]-> div[9]-> div[1]-> div[1]-> div[5]-> div[1]-> a[1]
